End-to-End Machine Learning with tidymodels and Posit Team
…
Now, cleaning data:

library(QSARdata)

data(Mutagen)

mutagen_tbl <- 
  bind_cols(
    as_tibble_col(Mutagen_Outcome, "outcome"),
    as_tibble(Mutagen_Dragon)
  )

mutagen_tbl

# A tibble: 4,335 × 1,580
   outcome       MW   AMW    Sv    Se    Sp    Ss    Mv    Me    Mp    Ms   nAT
   <fct>      <dbl> <dbl> <dbl> <dbl> <dbl> <dbl> <dbl> <dbl> <dbl> <dbl> <int>
 1 mutagen     326.  7.59  29.3  42.6  30.6  50.7  0.68  0.99  0.71  2.03    43
 2 mutagen     174.  9.17  13.2  19.6  13.4  38    0.7   1.03  0.71  2.92    19
 3 nonmutagen  300.  9.39  20.0  33.6  21.0  61.2  0.63  1.05  0.66  3.06    32
 4 nonmutagen  143.  6.23  12.6  23.1  13.5  26.2  0.55  1     0.59  2.62    23
 5 nonmutagen  216. 18.0   10.6  13.0  11.7  27.1  0.88  1.08  0.98  2.71    12
 6 mutagen     190.  7.93  15.4  24.4  16.0  36    0.64  1.02  0.67  2.57    24
 7 mutagen     328. 12.6   18.8  27.1  20.0  49.4  0.72  1.04  0.77  2.75    26
 8 nonmutagen  324.  8.11  26.3  40.7  27.4  59.2  0.66  1.02  0.68  2.47    40
 9 mutagen     136.  7.56  11.3  18.2  11.8  25.7  0.63  1.01  0.65  2.57    18
10 mutagen     323.  7.89  26.8  41.5  27.9  54.9  0.65  1.01  0.68  2.29    41
# ℹ 4,325 more rows
# ℹ 1,568 more variables: nSK <int>, nBT <int>, nBO <int>, nBM <int>,
#   SCBO <dbl>, ARR <dbl>, nCIC <int>, nCIR <int>, RBN <int>, RBF <dbl>,
#   nDB <int>, nTB <int>, nAB <int>, nH <int>, nC <int>, nN <int>, nO <int>,
#   nP <int>, nS <int>, nF <int>, nCL <int>, nBR <int>, nI <int>, nX <int>,
#   nR03 <int>, nR04 <int>, nR05 <int>, nR06 <int>, nR07 <int>, nR08 <int>,
#   nR09 <int>, nR10 <int>, nR11 <int>, nR12 <int>, nBnz <int>, ZM1 <int>, …
…
# first look at metrics:
metrics_wf_set <- collect_metrics(wf_set_fit, summarize = FALSE)

Taking a look at how these models did:

metrics_wf_set %>%
  filter(.metric == "roc_auc") %>%
  arrange(desc(.estimate))

# A tibble: 860 × 8
   wflow_id         .config     preproc model id    .metric .estimator .estimate
   <chr>            <chr>       <chr>   <chr> <chr> <chr>   <chr>          <dbl>
 1 basic_boost_tree Preprocess… recipe  boos… Fold… roc_auc binary         0.924
 2 basic_boost_tree Preprocess… recipe  boos… Fold… roc_auc binary         0.919
 3 basic_boost_tree Preprocess… recipe  boos… Fold… roc_auc binary         0.917
 4 basic_boost_tree Preprocess… recipe  boos… Fold… roc_auc binary         0.915
 5 basic_boost_tree Preprocess… recipe  boos… Fold… roc_auc binary         0.915
 6 basic_boost_tree Preprocess… recipe  boos… Fold… roc_auc binary         0.915
 7 basic_boost_tree Preprocess… recipe  boos… Fold… roc_auc binary         0.915
 8 basic_boost_tree Preprocess… recipe  boos… Fold… roc_auc binary         0.914
 9 basic_boost_tree Preprocess… recipe  boos… Fold… roc_auc binary         0.914
10 basic_boost_tree Preprocess… recipe  boos… Fold… roc_auc binary         0.914
# ℹ 850 more rows
…
metrics_xgb <- collect_metrics(xgb_sim_anneal_fit, summarize = FALSE)

Looks like we did make a small improvement:

metrics_xgb

# A tibble: 1,400 × 10
   id     trees min_n tree_depth learn_rate .metric .estimator .estimate .config
   <chr>  <int> <int>      <int>      <dbl> <chr>   <chr>          <dbl> <chr>  
 1 Fold01  1860     6          8    0.00276 accura… binary         0.798 initia…
 2 Fold01  1860     6          8    0.00276 kap     binary         0.591 initia…
 3 Fold01  1860     6          8    0.00276 mcc     binary         0.591 initia…
 4 Fold01  1860     6          8    0.00276 roc_auc binary         0.876 initia…
 5 Fold02  1860     6          8    0.00276 accura… binary         0.837 initia…
 6 Fold02  1860     6          8    0.00276 kap     binary         0.669 initia…
 7 Fold02  1860     6          8    0.00276 mcc     binary         0.672 initia…
 8 Fold02  1860     6          8    0.00276 roc_auc binary         0.914 initia…
 9 Fold03  1860     6          8    0.00276 accura… binary         0.852 initia…
10 Fold03  1860     6          8    0.00276 kap     binary         0.700 initia…
# ℹ 1,390 more rows
# ℹ 1 more variable: .iter <int>
…
